﻿BELGIUM DRUG FREE POWERLIFTING FEDERATION
                                            BK. Powerlifting Equipped 2012                                                  BW     SQ     BE     DL                   TOT     POINTS
1                                           - 44 KG Van Casteren             Hanne       Gilberts         14   T1   40,0    55                        32,5    77,5    165     196,98
1                                           - 63 KG Wuyts                    Helen       Gilbert          21   JR   62,4    160                       95      190     445     370,42
1                                           - 80 KG Dechamps                 Nadege      Castors          16   T2   76,3    170                       110     160     440     313,59
1                                           52 KG De Lauw                    Luc         Planet Fitness   47   M2   51,0    80                        85      110     275     267,69
1                                           56 KG Vermeulen                  Sven        Iso Gym          20   JR   55,1    110                       105     145     360     320,62
                                                                                                                                                      110
1                                           67,5 KG Bruneel                  Angelo      Isogym           19   T3   63,9    130                       90      160     380     290,17
1                                           67,5 KG Houbracken               Kim         Gilberts Gym     29   SR   67,3    172,5                     132,5   197,5   502,5   365,72
2                                           67,5 KG Van Den Abeele           Tim         Gilberts Gym     24   SR   62,2    155                       130     172,5   457,5   358,63
1                                           75 KG Cuylle                     Angelo      Isogym           19   T3   73,4    195                       115,5   212,5   522,5   353,21
                                                                                                                                                      117,5
1                                           75 KG Jacmart                    Jeremy      Castors          21   JR   70,6    180                       115     190     485     338,53
1                                           75 KG Hallewaert                 Bart        Isogym           43   M1   75,0    222,5                     138     242,5   602,5   400,36
1                                           82,5 KG Sudarminto               Indra       Planet Fitness   21   JR   76,6    265                       170     220     655     428,17
                                                                                                                                                      173
2                                           82,5 KG Soenens                  Gillis      Isogym           22   JR   78,1    170                       142,5   205     517,5   333,37
1                                           90 KG Dejans                     Angelo      KBBC             24   SR   86,1    130                       135     200     465     279,84
1                                           90 KG Janssen                    Geert       Gilberts Gym     44   M1   83,1    160                       140     190     490     301,94
1                                           90 KG Verbeke                    Beny        Isogym           47   M2   86,0    245                       130     275     650     391,43
1                                           90 KG Theyssens                  Martin      Elite Gym Gent   73   M7   89,0    125                       110     147,5   382,5   225,41
1                                           100 KG Velghe                    Jonas       Isogym           20   JR   96,6    220                       135     220     575     323,73
1                                           100 KG Vermote                   Gianni      Isogym           40   M1   99,4    272,5                     170     250,5   692,5   384,68
                                                                                                                                                      177,5
1                                           125 KG Golsteyn                  Bart        Isogym           47   M2   120,1   200                       150     180     530     279,26
1                                           125 KG Van Hove                  Gilbert     Castors          62   M5   118,2   40                        40      190     270     142,72
1                                           145 KG Dechamps                  Sebastien   Castors          19   T3   130,7   300                       215,5   287,5   802,5   412,57
1                                           145 KG Dechamps                  Jerome      Castors          24   SR   128,8   250                       220     300,5   770     397,63
                                                                                                                                                      225,5
Nat Record                                  World Record
European Record                             Best Lifter
Drugtested
9 - 12 - 2012 Florennes
