Division,WeightClassKg,Place,Name,Team,BodyweightKg,Best3SquatKg,Best3BenchKg,Best3DeadliftKg,TotalKg,Equipment,Event,Sex
Boys,51.71,1,Weston Hartmann,Abilene,51.71,108.86,65.77,113.4,288.03,Single-ply,SBD,M
Boys,51.71,2,Rex Wyatt,Hawley,50.8,117.93,70.31,95.25,283.5,Single-ply,SBD,M
Boys,51.71,3,Jacob Lewis,Stephenville,49.9,111.13,47.63,117.93,276.69,Single-ply,SBD,M
Boys,51.71,4,Jose Cordero,Abilene,51.26,102.06,65.77,108.86,276.69,Single-ply,SBD,M
Boys,51.71,5,Jonathan Michaels,Tuscola Jim Ned,40.82,86.18,56.7,81.65,224.53,Single-ply,SBD,M
Boys,51.71,6,Gary Footer,Abilene Cooper,43.09,45.36,40.82,77.11,163.29,Single-ply,SBD,M
Boys,55.79,1,Jaxon Sullivan,Clyde,55.34,140.61,83.91,140.61,365.14,Single-ply,SBD,M
Boys,55.79,2,Jay Lomas,Sweetwater,55.79,127.01,81.65,149.69,358.34,Single-ply,SBD,M
Boys,55.79,3,Nate Martinez #1,Loraine,54.43,115.67,63.5,131.54,310.71,Single-ply,SBD,M
Boys,55.79,4,Zach Flores,Abilene,55.34,108.86,88.45,113.4,310.71,Single-ply,SBD,M
Boys,55.79,5,Austin Hodnett,Tuscola Jim Ned,54.88,86.18,65.77,113.4,265.35,Single-ply,SBD,M
Boys,55.79,DQ,Jonathan Rodriguez,Abilene Cooper,54.88,,,,,Single-ply,SBD,M
Boys,55.79,DQ,Geordan McCoy,Abilene Cooper,55.34,,,,,Single-ply,SBD,M
Boys,55.79,DQ,Jeremy Neagle,Stephenville,54.43,,,,,Single-ply,SBD,M
Boys,59.87,1,Kv Hazlett,Abilene Cooper,59.42,176.9,102.06,158.76,437.72,Single-ply,SBD,M
Boys,59.87,2,Tristin Cauthen,Clyde,59.87,138.35,97.52,149.69,385.55,Single-ply,SBD,M
Boys,59.87,3,Johnathan Browning,Sweetwater,59.42,129.27,81.65,129.27,340.19,Single-ply,SBD,M
Boys,59.87,4,Dakotah Martinez,Stephenville,58.06,113.4,61.23,131.54,306.17,Single-ply,SBD,M
Boys,59.87,5,Pyton Polston,Tuscola Jim Ned,57.61,99.79,70.31,122.47,292.57,Single-ply,SBD,M
Boys,59.87,6,Till Siebert,Loraine,59.42,79.38,52.16,120.2,251.74,Single-ply,SBD,M
Boys,59.87,DQ,Billy Allen,Abilene Cooper,58.51,,,,,Single-ply,SBD,M
Boys,67.13,1,Bryce DeVore,Hawley,66.22,195.04,102.06,192.78,489.88,Single-ply,SBD,M
Boys,67.13,2,Dakota Brewster,Clyde,65.32,154.22,113.4,181.44,449.06,Single-ply,SBD,M
Boys,67.13,3,Jon Seabourn,Clyde,61.23,170.1,106.59,156.49,433.18,Single-ply,SBD,M
Boys,67.13,4,Donald Baker,Sweetwater,65.77,167.83,95.25,170.1,433.18,Single-ply,SBD,M
Boys,67.13,5,Austin Marlett,Sweetwater,67.13,161.03,92.99,158.76,412.77,Single-ply,SBD,M
Boys,67.13,6,Jonathan Howeth,Abilene,66.68,147.42,83.91,154.22,385.55,Single-ply,SBD,M
Boys,67.13,7,Hunter Enloe,Tuscola Jim Ned,65.77,136.08,92.99,145.15,374.21,Single-ply,SBD,M
Boys,67.13,8,Daniel Salazar,Abilene,66.68,142.88,79.38,133.81,356.07,Single-ply,SBD,M
Boys,67.13,9,Christian Eubanks,Clyde,63.05,124.74,70.31,156.49,351.53,Single-ply,SBD,M
Boys,67.13,10,Colton Honea,Tuscola Jim Ned,67.13,131.54,86.18,131.54,349.27,Single-ply,SBD,M
Boys,67.13,11,Nick Salinas,Abilene Cooper,66.22,111.13,79.38,140.61,331.12,Single-ply,SBD,M
Boys,67.13,12,Trey Harvey,Sweetwater,64.86,122.47,70.31,136.08,328.85,Single-ply,SBD,M
Boys,67.13,13,Gerardo Gonzales,Clyde,64.86,120.2,83.91,102.06,306.17,Single-ply,SBD,M
Boys,67.13,14,Drew Patterson,Stephenville,66.22,99.79,61.23,127.01,288.03,Single-ply,SBD,M
Boys,67.13,15,Nicholas Rosales,Abilene,60.78,102.06,74.84,90.72,267.62,Single-ply,SBD,M
Boys,67.13,DQ,Tim Garza,Loraine,64.86,,,,,Single-ply,SBD,M
Boys,67.13,DQ,Carson Edmonds,Loraine,66.68,,,,,Single-ply,SBD,M
Boys,74.84,1,Kneeland Donnelly,Hawley,68.49,226.8,120.2,210.92,557.92,Single-ply,SBD,M
Boys,74.84,2,Clancy Manuel,Hawley,73.94,226.8,120.2,210.92,557.92,Single-ply,SBD,M
Boys,74.84,3,Ryan Linebaugh,Sweetwater,74.84,210.92,117.93,206.38,535.24,Single-ply,SBD,M
Boys,74.84,4,Aaron Cantu,Abilene Cooper,73.94,183.7,113.4,183.7,480.81,Single-ply,SBD,M
Boys,74.84,5,Brandon Dodson,Abilene Cooper,71.21,170.1,117.93,183.7,471.74,Single-ply,SBD,M
Boys,74.84,6,Darius Collier,Abilene,73.94,167.83,83.91,172.37,424.11,Single-ply,SBD,M
Boys,74.84,7,Dylan White,Stephenville,73.94,147.42,111.13,165.56,424.11,Single-ply,SBD,M
Boys,74.84,8,Xavier Sneed,Abilene Cooper,71.67,149.69,92.99,154.22,396.89,Single-ply,SBD,M
Boys,74.84,9,Henry Sanchez,Abilene,73.48,142.88,86.18,161.03,390.09,Single-ply,SBD,M
Boys,74.84,10,Jacob Howeth,Abilene,74.39,154.22,92.99,142.88,390.09,Single-ply,SBD,M
Boys,74.84,11,Mason Latham,Clyde,72.57,136.08,83.91,163.29,383.29,Single-ply,SBD,M
Boys,74.84,12,James Baird,Clyde,70.31,129.27,90.72,156.49,376.48,Single-ply,SBD,M
Boys,74.84,13,Morgan Smith #9,Tuscola Jim Ned,71.67,138.35,90.72,138.35,367.41,Single-ply,SBD,M
Boys,74.84,14,Tyler Hall,Clyde,74.39,136.08,79.38,147.42,362.87,Single-ply,SBD,M
Boys,74.84,15,Bradley Kern,Abilene,71.21,115.67,65.77,131.54,312.98,Single-ply,SBD,M
Boys,74.84,DQ,Blayne Darnell,Clyde,71.67,158.76,,,,Single-ply,SBD,M
Boys,74.84,DQ,Bradon Smith,Tuscola Jim Ned,73.94,,,,,Single-ply,SBD,M
Boys,82.1,1,Levi Irby,Hawley,81.65,265.35,142.88,229.06,637.3,Single-ply,SBD,M
Boys,82.1,2,Sam Nemir,Sweetwater,79.83,226.8,147.42,229.06,603.28,Single-ply,SBD,M
Boys,82.1,3,Jamal Session,Abilene Cooper,81.65,204.12,113.4,199.58,517.1,Single-ply,SBD,M
Boys,82.1,4,William Coleman,Abilene Cooper,81.65,181.44,120.2,204.12,505.76,Single-ply,SBD,M
Boys,82.1,5,Devin Martinez,Clyde,78.02,181.44,102.06,208.65,492.15,Single-ply,SBD,M
Boys,82.1,6,Austin Rain,Clyde,78.93,174.63,108.86,204.12,487.61,Single-ply,SBD,M
Boys,82.1,7,Aric Ramzanalli,Hawley,81.65,183.7,83.91,183.7,451.32,Single-ply,SBD,M
Boys,82.1,8,Dillon Burton,Clyde,82.1,165.56,86.18,188.24,439.98,Single-ply,SBD,M
Boys,82.1,9,Jake Yarbrough,Abilene,79.38,154.22,83.91,163.29,401.43,Single-ply,SBD,M
Boys,82.1,10,Zach Garcia,Sweetwater,79.38,140.61,77.11,154.22,371.95,Single-ply,SBD,M
Boys,82.1,11,Tom Berry,Abilene,80.29,124.74,95.25,149.69,369.68,Single-ply,SBD,M
Boys,82.1,DQ,Tyler Lackey,Abilene,81.19,,,,,Single-ply,SBD,M
Boys,82.1,DQ,Kaleb Corey,Abilene Cooper,81.65,195.04,,,,Single-ply,SBD,M
Boys,89.81,1,Jacob Lopez,Clyde,89.36,204.12,129.27,208.65,542.04,Single-ply,SBD,M
Boys,89.81,2,Alex Garcia #1,Sweetwater,83.46,195.04,106.59,233.6,535.24,Single-ply,SBD,M
Boys,89.81,3,Pablo Hernandez,Abilene Cooper,88.45,174.63,124.74,195.04,494.42,Single-ply,SBD,M
Boys,89.81,4,Pate Hughes,Abilene,88.9,204.12,106.59,181.44,492.15,Single-ply,SBD,M
Boys,89.81,5,Joey Haddad,Clyde,89.81,170.1,113.4,195.04,478.54,Single-ply,SBD,M
Boys,89.81,6,Mike Prather,Hawley,87.09,181.44,108.86,183.7,474,Single-ply,SBD,M
Boys,89.81,7,Kyle Lambert,Sweetwater,89.81,172.37,124.74,174.63,471.74,Single-ply,SBD,M
Boys,89.81,8,Aberiel Martinez,Abilene,85.73,181.44,113.4,161.03,455.86,Single-ply,SBD,M
Boys,89.81,9,Miguel Espinoza,Abilene,89.36,158.76,115.67,181.44,455.86,Single-ply,SBD,M
Boys,89.81,10,Sam Berry,Abilene,87.09,158.76,90.72,170.1,419.57,Single-ply,SBD,M
Boys,89.81,11,Skyler Wilson,Abilene Cooper,87.09,142.88,99.79,172.37,415.04,Single-ply,SBD,M
Boys,89.81,12,Austin McLeod,Abilene,88.9,124.74,92.99,181.44,399.16,Single-ply,SBD,M
Boys,89.81,13,Juan Nunez,Abilene Cooper,85.73,142.88,88.45,163.29,394.63,Single-ply,SBD,M
Boys,89.81,14,Brandon Hobbs,Clyde,84.82,124.74,81.65,170.1,376.48,Single-ply,SBD,M
Boys,89.81,DQ,Pierce Buquet,Abilene Cooper,88,,,,,Single-ply,SBD,M
Boys,89.81,DQ,Josh Helzer,Hawley,83.91,,,,,Single-ply,SBD,M
Boys,89.81,DQ,Austin Sellers,Hawley,88,,,,,Single-ply,SBD,M
Boys,89.81,DQ,Aaron McAndrew,Hawley,88.9,142.88,,,,Single-ply,SBD,M
Boys,89.81,DQ,Hunter Gibson #2,Tuscola Jim Ned,83.91,133.81,,,,Single-ply,SBD,M
Boys,99.79,1,Tanner Fannin,Clyde,98.43,201.85,120.2,226.8,548.85,Single-ply,SBD,M
Boys,99.79,2,Alex Toomer,Abilene Cooper,97.98,204.12,131.54,208.65,544.31,Single-ply,SBD,M
Boys,99.79,3,Anthony McLendon,Abilene,97.98,215.46,133.81,190.51,539.77,Single-ply,SBD,M
Boys,99.79,4,Kendall Rea,Sweetwater,97.07,188.24,129.27,181.44,498.95,Single-ply,SBD,M
Boys,99.79,5,Ryan Childress,Abilene,95.71,195.04,122.47,174.63,492.15,Single-ply,SBD,M
Boys,99.79,6,Jacob Stewart,Abilene Cooper,91.17,172.37,106.59,183.7,462.66,Single-ply,SBD,M
Boys,99.79,7,Alex Bonilla,Abilene Cooper,99.79,174.63,124.74,158.76,458.13,Single-ply,SBD,M
Boys,99.79,8,Darrien Stewart,Abilene Cooper,90.72,167.83,106.59,158.76,433.18,Single-ply,SBD,M
Boys,99.79,9,Reagan Cooke,Abilene,92.53,174.63,90.72,167.83,433.18,Single-ply,SBD,M
Boys,99.79,10,David Brown #14,Abilene,97.07,142.88,77.11,142.88,362.87,Single-ply,SBD,M
Boys,99.79,11,Tanner Brown,Abilene Cooper,92.08,120.2,74.84,133.81,328.85,Single-ply,SBD,M
Boys,99.79,DQ,Zach Boyd,Abilene Cooper,90.72,,,,,Single-ply,SBD,M
Boys,99.79,DQ,Gabe Hernandez,Abilene Cooper,97.52,,,,,Single-ply,SBD,M
Boys,109.77,1,Mateo Gonzales,Sweetwater,102.06,249.48,154.22,249.48,653.17,Single-ply,SBD,M
Boys,109.77,2,Jake McMillon,Abilene,107.5,229.06,156.49,229.06,614.62,Single-ply,SBD,M
Boys,109.77,3,Addison Schreffler,Clyde,107.05,204.12,142.88,172.37,519.36,Single-ply,SBD,M
Boys,109.77,4,Russell Holland,Clyde,100.7,183.7,113.4,201.85,498.95,Single-ply,SBD,M
Boys,109.77,5,Oscar Valdez,Clyde,102.06,192.78,106.59,192.78,492.15,Single-ply,SBD,M
Boys,109.77,6,Lucas Raley,Abilene Cooper,104.33,172.37,97.52,199.58,469.47,Single-ply,SBD,M
Boys,109.77,7,Brock Tetford,Abilene,109.32,158.76,113.4,181.44,453.59,Single-ply,SBD,M
Boys,109.77,8,Christian Perez,Abilene,108.41,170.1,97.52,165.56,433.18,Single-ply,SBD,M
Boys,109.77,9,Ethan Miko,Abilene,104.33,158.76,102.06,170.1,430.91,Single-ply,SBD,M
Boys,109.77,10,Max Jones #2,Stephenville,104.33,149.69,90.72,156.49,396.89,Single-ply,SBD,M
Boys,109.77,11,Daniel Wilchie,Abilene,107.5,149.69,90.72,136.08,376.48,Single-ply,SBD,M
Boys,109.77,DQ,Eric Prado,Abilene,102.97,181.44,136.08,,,Single-ply,SBD,M
Boys,109.77,DQ,Billy Jones,Tuscola Jim Ned,108.41,,,,,Single-ply,SBD,M
Boys,124.74,1,Chantz Anderson,Abilene,111.13,226.8,151.95,183.7,562.45,Single-ply,SBD,M
Boys,124.74,2,Matt Diaz,Stephenville,115.21,176.9,149.69,163.29,489.88,Single-ply,SBD,M
Boys,124.74,3,Conner Willis,Tuscola Jim Ned,121.11,192.78,113.4,181.44,487.61,Single-ply,SBD,M
Boys,124.74,4,Angel Caballero,Sweetwater,124.28,195.04,113.4,179.17,487.61,Single-ply,SBD,M
Boys,124.74,5,Tyler Ferguson,Stephenville,112.49,183.7,111.13,183.7,478.54,Single-ply,SBD,M
Boys,124.74,6,Josh Hunter,Abilene,118.39,188.24,92.99,192.78,474,Single-ply,SBD,M
Boys,124.74,7,Chase Saunders,Sweetwater,117.93,174.63,102.06,183.7,460.4,Single-ply,SBD,M
Boys,124.74,8,Raul Rocha,Stephenville,119.29,176.9,113.4,154.22,444.52,Single-ply,SBD,M
Boys,124.74,9,Nick Pack,Stephenville,112.04,136.08,120.2,154.22,410.5,Single-ply,SBD,M
Boys,124.74,10,Donato Gaxiola,Sweetwater,117.03,156.49,90.72,161.03,408.23,Single-ply,SBD,M
Boys,124.74,11,Hunter Fannin,Clyde,117.93,138.35,92.99,142.88,374.21,Single-ply,SBD,M
Boys,124.74,DQ,Hunter Hawkins,Abilene Cooper,115.67,,,,,Single-ply,SBD,M
Boys,124.74,DQ,Isaac Rios,Abilene,115.67,151.95,,,,Single-ply,SBD,M
Boys,124.74+,1,Mike Green,Abilene Cooper,155.13,254.01,142.88,226.8,623.69,Single-ply,SBD,M
Boys,124.74+,2,Riley Owens,Abilene Cooper,131.54,249.48,124.74,215.46,589.67,Single-ply,SBD,M
Boys,124.74+,3,Jordan Kilcrease,Stephenville,134.26,222.26,145.15,176.9,544.31,Single-ply,SBD,M
Boys,124.74+,4,Brex Burris,Abilene Cooper,135.17,215.46,129.27,192.78,537.51,Single-ply,SBD,M
Boys,,NS,Dustin Gollihar,Clyde,,,,,,Single-ply,SBD,M
Boys,,NS,Lane Picket,Hawley,,,,,,Single-ply,SBD,M
Boys,,NS,Steven Le,Sweetwater,,,,,,Single-ply,SBD,M
