Division,WeightClassKg,Place,Name,Team,BodyweightKg,Best3SquatKg,Best3BenchKg,Best3DeadliftKg,TotalKg,Equipment,Event,Sex
Boys,51.71,1,Josue Leon,Sulphur Springs,50.35,185.97,74.84,176.9,437.72,Single-ply,SBD,M
Boys,51.71,2,Devin Lasenby,Paris North Lamar,50.21,174.63,102.06,113.4,390.09,Single-ply,SBD,M
Boys,51.71,3,Jesse Ortiz,Sulphur Springs,51.12,138.35,68.04,147.42,353.8,Single-ply,SBD,M
Boys,51.71,4,Rj Reynolds,Commerce,51.03,127.01,77.11,136.08,340.19,Single-ply,SBD,M
Boys,51.71,5,Dudley Scott,Paris,51.71,90.72,47.63,113.4,251.74,Single-ply,SBD,M
Boys,51.71,6,Mauricio Cadena,Commerce,51.03,88.45,45.36,102.06,235.87,Single-ply,SBD,M
Boys,51.71,7,Marco Hernandez,Bonham,45.81,88.45,49.9,83.91,222.26,Single-ply,SBD,M
Boys,51.71,8,Eliud Gonzales,Bonham,51.44,81.65,43.09,97.52,222.26,Single-ply,SBD,M
Boys,59.87,1,Luis Gomez,Sulphur Springs,55.93,149.69,86.18,142.88,378.75,Single-ply,SBD,M
Boys,55.79,2,Dalton Krudle,Commerce,55.79,149.69,74.84,138.35,362.87,Single-ply,SBD,M
Boys,55.79,3,Colton Strode,Cooper,55.2,124.74,65.77,120.2,310.71,Single-ply,SBD,M
Boys,55.79,4,Micah Kithens,Commerce,52.44,97.52,47.63,113.4,258.55,Single-ply,SBD,M
Boys,59.87,1,Samuel Hammons,Sulphur Springs,59.69,145.15,83.91,158.76,387.82,Single-ply,SBD,M
Boys,59.87,2,Jacob Kemp,Bonham,59.74,158.76,74.84,149.69,383.29,Single-ply,SBD,M
Boys,59.87,3,Jared Mathews,Paris Chisum,59.78,129.27,83.91,136.08,349.27,Single-ply,SBD,M
Boys,67.13,1,Clem Bailey,Paris,67.13,204.12,145.15,215.46,564.72,Single-ply,SBD,M
Boys,74.84,2,Dondrell Hawkins,Paris,67.31,192.78,104.33,179.17,476.27,Single-ply,SBD,M
Boys,67.13,3,Chris Stephens,Sherman,66.41,183.7,83.91,172.37,439.98,Single-ply,SBD,M
Boys,67.13,4,Grant Kilcrease,Paris North Lamar,67.04,149.69,92.99,181.44,424.11,Single-ply,SBD,M
Boys,67.13,5,Tyler Murphy,Commerce,60.69,142.88,65.77,158.76,367.41,Single-ply,SBD,M
Boys,67.13,6,Braden Kelley,Paris North Lamar,61.55,127.01,68.04,156.49,351.53,Single-ply,SBD,M
Boys,67.13,7,Davari Johnson,Paris,64.41,83.91,68.04,142.88,294.84,Single-ply,SBD,M
Boys,74.84,1,Dominick Sanders,Paris,74.39,226.8,120.2,226.8,573.79,Single-ply,SBD,M
Boys,74.84,2,Johnathon Carlisle,Sulphur Springs,70.9,208.65,117.93,219.99,546.58,Single-ply,SBD,M
Boys,82.1,3,ShaCody Williams,Sherman,75.07,208.65,122.47,181.44,512.56,Single-ply,SBD,M
Boys,74.84,4,Travis Oden,Cooper,74.71,185.97,127.01,197.31,510.29,Single-ply,SBD,M
Boys,74.84,5,Torey Long,Sherman,74.12,206.38,113.4,183.7,503.49,Single-ply,SBD,M
Boys,82.1,6,Marcus Cantera,Commerce,75.07,183.7,124.74,190.51,498.95,Single-ply,SBD,M
Boys,74.84,7,Corprew Kadarius,Paris,74.84,204.12,102.06,170.1,476.27,Single-ply,SBD,M
Boys,74.84,8,Brent Penticost,Paris North Lamar,73.12,147.42,90.72,170.1,408.23,Single-ply,SBD,M
Boys,74.84,9,Brandon Chandler,Cooper,73.94,129.27,77.11,154.22,360.61,Single-ply,SBD,M
Boys,74.84,10,Kindle Alexander,Paris,72.57,115.67,65.77,120.2,301.64,Single-ply,SBD,M
Boys,82.1,1,Ty Smith,Paris North Lamar,81.65,263.08,151.95,233.6,648.64,Single-ply,SBD,M
Boys,82.1,2,Isaiah Martinez,Commerce,80.29,217.72,149.69,217.72,585.13,Single-ply,SBD,M
Boys,82.1,3,Maverick Jones,Paris North Lamar,81.28,240.4,136.08,208.65,585.13,Single-ply,SBD,M
Boys,89.81,4,Trey Adair,Sulphur Springs,82.33,226.8,129.27,188.24,544.31,Single-ply,SBD,M
Boys,82.1,5,Chance Kelley,Paris North Lamar,76.2,190.51,111.13,183.7,485.34,Single-ply,SBD,M
Boys,82.1,6,Kenton Manis,Bonham,81.15,185.97,83.91,190.51,460.4,Single-ply,SBD,M
Boys,82.1,7,Andrew Johnson #6,Paris North Lamar,81.47,172.37,92.99,181.44,446.79,Single-ply,SBD,M
Boys,82.1,8,Triston McClure,Paris,79.11,163.29,68.04,170.1,401.43,Single-ply,SBD,M
Boys,82.1,9,Jabai Amhed,Honey Grove,78.15,124.74,90.72,158.76,374.21,Single-ply,SBD,M
Boys,82.1,DQ,Quinn Lipscomb,Paris,76.29,,,,,Single-ply,SBD,M
Boys,89.81,1,Dq Lipscomb,Paris,88.9,274.42,158.76,274.42,707.6,Single-ply,SBD,M
Boys,89.81,2,Levi Haggard,Bonham,83.6,244.94,140.61,204.12,589.67,Single-ply,SBD,M
Boys,89.81,3,Mikey Dobbles,Bonham,89.72,213.19,108.86,192.78,514.83,Single-ply,SBD,M
Boys,89.81,4,Ethan England,Paris,88,142.88,74.84,158.76,376.48,Single-ply,SBD,M
Boys,89.81,5,Joe Winton,Paris North Lamar,86,136.08,92.99,142.88,371.95,Single-ply,SBD,M
Boys,89.81,6,Daryl Bennett,Paris Chisum,88.77,124.74,70.31,136.08,331.12,Single-ply,SBD,M
Boys,89.81,7,Seth Spangler,Paris Chisum,85.14,97.52,63.5,120.2,281.23,Single-ply,SBD,M
Boys,99.79,1,Jon Boehlar,Paris Chisum,95.03,217.72,151.95,217.72,587.4,Single-ply,SBD,M
Boys,99.79,2,KaLynn Miller,Paris Chisum,99.56,217.72,156.49,204.12,578.33,Single-ply,SBD,M
Boys,99.79,3,Stryker Hunnicutt,Bonham,90.58,208.65,131.54,226.8,566.99,Single-ply,SBD,M
Boys,99.79,4,Justin Warner,Cooper,94.76,217.72,124.74,197.31,539.77,Single-ply,SBD,M
Boys,99.79,5,Javier Jaramillo,Honey Grove,97.3,204.12,113.4,183.7,501.22,Single-ply,SBD,M
Boys,99.79,6,Geoffrey Smith,Paris,92.53,176.9,106.59,208.65,492.15,Single-ply,SBD,M
Boys,99.79,7,Will Jamar,Paris North Lamar,98.07,179.17,108.86,181.44,469.47,Single-ply,SBD,M
Boys,99.79,8,Eric Dickey,Paris North Lamar,95.75,151.95,120.2,170.1,442.25,Single-ply,SBD,M
Boys,99.79,9,Brandon Ramirez,Commerce,91.58,158.76,102.06,158.76,419.57,Single-ply,SBD,M
Boys,99.79,10,Tyler Carter,Paris North Lamar,98.43,145.15,92.99,163.29,401.43,Single-ply,SBD,M
Boys,109.77,1,Tyran Wilson,Commerce,108.14,213.19,142.88,219.99,576.06,Single-ply,SBD,M
Boys,109.77,2,Trevor Mobley,Cooper,109,188.24,97.52,190.51,476.27,Single-ply,SBD,M
Boys,109.77,3,Tyler Trammel,Paris North Lamar,100.24,197.31,113.4,158.76,469.47,Single-ply,SBD,M
Boys,109.77,4,Tyler Williams,Cooper,107.77,170.1,120.2,165.56,455.86,Single-ply,SBD,M
Boys,109.77,DQ,Billy Watson #1,Cooper,107.91,136.08,,,,Single-ply,SBD,M
Boys,124.74,1,Cortez Crosby,Commerce,117.39,308.44,176.9,285.76,771.11,Single-ply,SBD,M
Boys,124.74,2,Marquis Gill,Paris,115.21,235.87,151.95,213.19,601.01,Single-ply,SBD,M
Boys,124.74,3,Brandon Phillips,Paris,117.93,249.48,138.35,197.31,585.13,Single-ply,SBD,M
Boys,124.74+,1,Chase Cadena,Sulphur Springs,148.87,231.33,151.95,208.65,591.94,Single-ply,SBD,M
Boys,124.74+,2,Qawi Ar-Raheem,Paris Chisum,127.64,224.53,113.4,190.51,528.44,Single-ply,SBD,M
Boys,124.74+,3,Jackie Berry,Paris North Lamar,134.58,215.46,92.99,208.65,517.1,Single-ply,SBD,M
Boys,124.74+,DQ,Jess Jenkins,Sulphur Springs,125.96,174.63,129.27,,,Single-ply,SBD,M
Boys,124.74+,DQ,Kayuna Hastings,Sherman,135.81,229.06,,,,Single-ply,SBD,M
Boys,124.74+,DQ,Gerardo Sanchez,Commerce,127.01,204.12,,,,Single-ply,SBD,M
